\relax 
\providecommand\hyper@newdestlabel[2]{}
\providecommand\HyperFirstAtBeginDocument{\AtBeginDocument}
\HyperFirstAtBeginDocument{\ifx\hyper@anchor\@undefined
\global\let\oldcontentsline\contentsline
\gdef\contentsline#1#2#3#4{\oldcontentsline{#1}{#2}{#3}}
\global\let\oldnewlabel\newlabel
\gdef\newlabel#1#2{\newlabelxx{#1}#2}
\gdef\newlabelxx#1#2#3#4#5#6{\oldnewlabel{#1}{{#2}{#3}}}
\AtEndDocument{\ifx\hyper@anchor\@undefined
\let\contentsline\oldcontentsline
\let\newlabel\oldnewlabel
\fi}
\fi}
\global\let\hyper@last\relax 
\gdef\HyperFirstAtBeginDocument#1{#1}
\providecommand\HyField@AuxAddToFields[1]{}
\providecommand\HyField@AuxAddToCoFields[2]{}
\@writefile{toc}{\contentsline {chapter}{\numberline {1}PiServer}{3}{chapter.1}}
\@writefile{lof}{\addvspace {10\p@ }}
\@writefile{lot}{\addvspace {10\p@ }}
\newlabel{chapter:Pi Server}{{1}{3}{PiServer}{chapter.1}{}}
\@writefile{lof}{\contentsline {figure}{\numberline {1.1}{\ignorespaces An overview of the PiServer network topography.}}{3}{figure.1.1}}
\newlabel{fig:PiServer-1a}{{1.1}{3}{An overview of the PiServer network topography}{figure.1.1}{}}
\@writefile{toc}{\contentsline {section}{\numberline {1.1}Section A: Installation}{3}{section.1.1}}
\@writefile{toc}{\contentsline {subsection}{\numberline {1.1.1}Step One: Enable Network Booting on Client Pi}{4}{subsection.1.1.1}}
\@writefile{toc}{\contentsline {subsection}{\numberline {1.1.2}Step Two: Install PiServer}{4}{subsection.1.1.2}}
\@writefile{toc}{\contentsline {section}{\numberline {1.2}Section B: Configure PiServer}{4}{section.1.2}}
\@writefile{toc}{\contentsline {subsection}{\numberline {1.2.1}Step One: Attach the client Pi to the Network}{4}{subsection.1.2.1}}
\@writefile{lof}{\contentsline {figure}{\numberline {1.2}{\ignorespaces The Add clients page.}}{5}{figure.1.2}}
\newlabel{fig:PiServer-2}{{1.2}{5}{The Add clients page}{figure.1.2}{}}
\@writefile{toc}{\contentsline {subsection}{\numberline {1.2.2}Step Two: Configure PiServer}{5}{subsection.1.2.2}}
\@writefile{lof}{\contentsline {figure}{\numberline {1.3}{\ignorespaces Configure the users.}}{5}{figure.1.3}}
\newlabel{fig:PiServer-3}{{1.3}{5}{Configure the users}{figure.1.3}{}}
\@writefile{lof}{\contentsline {figure}{\numberline {1.4}{\ignorespaces Add the desired operating system.}}{6}{figure.1.4}}
\newlabel{fig:PiServer-4}{{1.4}{6}{Add the desired operating system}{figure.1.4}{}}
